Bijlage D — Assumptieschendingen oplossen – Statistische analyse en presentatie met R
…
 [1] "Austria"        "Belgium"        "Bulgaria"       "Croatia"       
 [5] "Cyprus"         "Finland"        "France"         "Germany"       
 [9] "Greece"         "Hungary"        "Iceland"        "Ireland"       
[13] "Israel"         "Italy"          "Latvia"         "Lithuania"     
[17] "Montenegro"     "Netherlands"    "Norway"         "Poland"        
[21] "Portugal"       "Serbia"         "Slovakia"       "Slovenia"      
[25] "Spain"          "Sweden"         "Switzerland"    "United Kingdom"

# Factor toevoegen aan model
demsatis_model2 <- lm(stfdem ~ lrscale + country_name_F, data = ess_demsatis)

# Coëfficiënten opvragen
tidy(demsatis_model2, conf.int = TRUE)

# A tibble: 29 × 7
   term                estimate std.error statistic   p.value conf.low conf.high
   <chr>                  <dbl>     <dbl>     <dbl>     <dbl>    <dbl>     <dbl>
 1 (Intercept)           5.15     0.0568     90.7   0            5.03     5.26  
 2 lrscale               0.136    0.00521    26.2   4.59e-150    0.126    0.147 
 3 country_name_FBelg…  -0.550    0.0790     -6.96  3.45e- 12   -0.704   -0.395 
 4 country_name_FBulg…  -2.42     0.0751    -32.1   7.25e-224   -2.56    -2.27  
 5 country_name_FCroa…  -1.35     0.0819    -16.5   8.89e- 61   -1.51    -1.19  
 6 country_name_FCypr…  -1.27     0.108     -11.7   8.62e- 32   -1.49    -1.06  
 7 country_name_FFinl…   0.885    0.0791     11.2   4.70e- 29    0.730    1.04  
 8 country_name_FFran…  -1.53     0.0782    -19.6   4.41e- 85   -1.68    -1.38  
 9 country_name_FGerm…  -0.0598   0.0705     -0.848 3.96e-  1   -0.198    0.0784
10 country_name_FGree…  -1.62     0.0703    -23.0   1.57e-116   -1.76    -1.48  
# ℹ 19 more rows
…
